{
  "description": "Displays CPU(use %, avg. clock speed, temp); RAM(Used, Free); NET(Down/s, Up/s) info on the System Tray (Status Bar)",
  "name": "Status Bar System Monitor (LEGACY)",
  "shell-version": [
    "43",
    "44"
  ],
  "url": "https://gitlab.gnome.org/elcodedocle/status-bar-system-monitor",
  "uuid": "status-bar-system-monitor@elcodedocle.gitlab.gnome.org",
  "gettext-domain": "status-bar-system-monitor@elcodedocle.gitlab.gnome.org",
  "version": 21
}
